{
  "actions": [],
  "allow_import": 1,
  "allow_rename": 1,
  "autoname": "HR-BEN-APP-.YY.-.MM.-.#####",
  "creation": "2018-04-13 16:31:39.190787",
  "doctype": "DocType",
  "editable_grid": 1,
  "engine": "InnoDB",
  "field_order": [
   "employee",
   "employee_name",
   "currency",
   "max_benefits",
   "remaining_benefit",
   "column_break_2",
   "date",
   "payroll_period",
   "department",
   "company",
   "amended_from",
   "section_break_4",
   "employee_benefits",
   "totals",
   "total_amount",
   "column_break",
   "pro_rata_dispensed_amount"
  ],
  "fields": [
   {
    "fieldname": "employee",
    "fieldtype": "Link",
    "in_list_view": 1,
    "label": "Employee",
    "options": "Employee",
    "reqd": 1
   },
   {
    "fetch_from": "employee.employee_name",
    "fieldname": "employee_name",
    "fieldtype": "Data",
    "label": "Employee Name",
    "read_only": 1
   },
   {
    "fieldname": "max_benefits",
    "fieldtype": "Currency",
    "label": "Max Benefits (Yearly)",
    "options": "currency",
    "read_only": 1
   },
   {
    "fieldname": "remaining_benefit",
    "fieldtype": "Currency",
    "label": "Remaining Benefits (Yearly)",
    "options": "currency",
    "read_only": 1
   },
   {
    "fieldname": "column_break_2",
    "fieldtype": "Column Break"
   },
   {
    "default": "Today",
    "fieldname": "date",
    "fieldtype": "Date",
    "label": "Date",
    "reqd": 1
   },
   {
    "fieldname": "payroll_period",
    "fieldtype": "Link",
    "in_list_view": 1,
    "label": "Payroll Period",
    "options": "Payroll Period",
    "reqd": 1
   },
   {
    "fetch_from": "employee.department",
    "fieldname": "department",
    "fieldtype": "Link",
    "label": "Department",
    "options": "Department",
    "read_only": 1
   },
   {
    "fieldname": "amended_from",
    "fieldtype": "Link",
    "label": "Amended From",
    "no_copy": 1,
    "options": "Employee Benefit Application",
    "print_hide": 1,
    "read_only": 1
   },
   {
    "fieldname": "section_break_4",
    "fieldtype": "Section Break",
    "label": "Benefits Applied"
   },
   {
    "fieldname": "employee_benefits",
    "fieldtype": "Table",
    "label": "Employee Benefits",
    "options": "Employee Benefit Application Detail",
    "reqd": 1
   },
   {
    "fieldname": "totals",
    "fieldtype": "Section Break",
    "label": "Totals"
   },
   {
    "fieldname": "total_amount",
    "fieldtype": "Currency",
    "label": "Total Amount",
    "options": "currency",
    "read_only": 1
   },
   {
    "fieldname": "pro_rata_dispensed_amount",
    "fieldtype": "Currency",
    "label": "Dispensed Amount (Pro-rated)",
    "options": "currency",
    "read_only": 1
   },
   {
    "depends_on": "eval:(doc.docstatus==1 || doc.employee)",
    "fieldname": "currency",
    "fieldtype": "Link",
    "label": "Currency",
    "options": "Currency",
    "read_only": 1,
    "reqd": 1
   },
   {
    "fetch_from": "employee.company",
    "fieldname": "company",
    "fieldtype": "Link",
    "label": "Company",
    "options": "Company",
    "reqd": 1
   },
   {
    "fieldname": "column_break",
    "fieldtype": "Column Break"
   }
  ],
  "is_submittable": 1,
  "links": [],
  "modified": "2022-01-19 12:58:31.664468",
  "modified_by": "Administrator",
  "module": "Payroll",
  "name": "Employee Benefit Application",
  "naming_rule": "Expression (old style)",
  "owner": "Administrator",
  "permissions": [
   {
    "amend": 1,
    "cancel": 1,
    "create": 1,
    "delete": 1,
    "email": 1,
    "export": 1,
    "print": 1,
    "read": 1,
    "report": 1,
    "role": "System Manager",
    "share": 1,
    "submit": 1,
    "write": 1
   },
   {
    "amend": 1,
    "cancel": 1,
    "create": 1,
    "delete": 1,
    "email": 1,
    "export": 1,
    "print": 1,
    "read": 1,
    "report": 1,
    "role": "HR Manager",
    "share": 1,
    "submit": 1,
    "write": 1
   },
   {
    "amend": 1,
    "cancel": 1,
    "create": 1,
    "delete": 1,
    "email": 1,
    "export": 1,
    "print": 1,
    "read": 1,
    "report": 1,
    "role": "HR User",
    "share": 1,
    "submit": 1,
    "write": 1
   },
   {
    "create": 1,
    "delete": 1,
    "email": 1,
    "export": 1,
    "print": 1,
    "read": 1,
    "report": 1,
    "role": "Employee",
    "share": 1,
    "write": 1
   }
  ],
  "quick_entry": 1,
  "search_fields": "employee_name",
  "sort_field": "modified",
  "sort_order": "DESC",
  "states": [],
  "title_field": "employee_name",
  "track_changes": 1
 }
