{
 "actions": [],
 "allow_auto_repeat": 1,
 "allow_import": 1,
 "autoname": "naming_series:",
 "creation": "2021-04-22 08:24:39.631552",
 "doctype": "DocType",
 "editable_grid": 1,
 "engine": "InnoDB",
 "field_order": [
  "title",
  "naming_series",
  "entry_type",
  "status",
  "column_break_4",
  "posting_date",
  "company",
  "accounting_journal",
  "section_break_8",
  "adjustment_account",
  "column_break_10",
  "reversal_date",
  "section_break_17",
  "get_documents",
  "details",
  "section_break_12",
  "total_credit",
  "total_debit",
  "column_break_15",
  "total_posting_amount",
  "section_break_10",
  "auto_repeat",
  "amended_from"
 ],
 "fields": [
  {
   "fieldname": "title",
   "fieldtype": "Data",
   "hidden": 1,
   "label": "Title"
  },
  {
   "fieldname": "naming_series",
   "fieldtype": "Select",
   "in_list_view": 1,
   "label": "Naming Series",
   "options": "ACC-ADJ-.YYYY.-",
   "reqd": 1,
   "set_only_once": 1
  },
  {
   "fieldname": "entry_type",
   "fieldtype": "Select",
   "label": "Entry Type",
   "options": "Deferred charges\nDeferred income"
  },
  {
   "fieldname": "accounting_journal",
   "fieldtype": "Link",
   "label": "Accounting Journal",
   "options": "Accounting Journal"
  },
  {
   "fieldname": "company",
   "fieldtype": "Link",
   "label": "Company",
   "options": "Company",
   "reqd": 1
  },
  {
   "fieldname": "auto_repeat",
   "fieldtype": "Link",
   "label": "Auto Repeat",
   "options": "Auto Repeat"
  },
  {
   "fieldname": "amended_from",
   "fieldtype": "Link",
   "label": "Amended From",
   "no_copy": 1,
   "options": "Adjustment Entry",
   "print_hide": 1,
   "read_only": 1
  },
  {
   "fieldname": "details",
   "fieldtype": "Table",
   "label": "Details",
   "options": "Adjustment Entry Detail",
   "reqd": 1
  },
  {
   "fieldname": "column_break_4",
   "fieldtype": "Column Break"
  },
  {
   "default": "Today",
   "fieldname": "posting_date",
   "fieldtype": "Date",
   "label": "Posting Date",
   "reqd": 1
  },
  {
   "fieldname": "section_break_8",
   "fieldtype": "Section Break"
  },
  {
   "collapsible": 1,
   "fieldname": "section_break_10",
   "fieldtype": "Section Break",
   "label": "Additional Information"
  },
  {
   "fieldname": "get_documents",
   "fieldtype": "Button",
   "label": "Get documents"
  },
  {
   "fieldname": "column_break_10",
   "fieldtype": "Column Break"
  },
  {
   "fieldname": "reversal_date",
   "fieldtype": "Date",
   "label": "Reversal Date",
   "reqd": 1
  },
  {
   "fieldname": "section_break_12",
   "fieldtype": "Section Break"
  },
  {
   "fieldname": "total_credit",
   "fieldtype": "Currency",
   "label": "Total Credit",
   "read_only": 1
  },
  {
   "fieldname": "total_debit",
   "fieldtype": "Currency",
   "label": "Total Debit",
   "read_only": 1
  },
  {
   "fieldname": "column_break_15",
   "fieldtype": "Column Break"
  },
  {
   "fieldname": "section_break_17",
   "fieldtype": "Section Break"
  },
  {
   "fieldname": "total_posting_amount",
   "fieldtype": "Currency",
   "label": "Total posting amount",
   "read_only": 1
  },
  {
   "fieldname": "adjustment_account",
   "fieldtype": "Link",
   "label": "Adjustment Account",
   "options": "Account",
   "reqd": 1
  },
  {
   "default": "Draft",
   "fieldname": "status",
   "fieldtype": "Select",
   "label": "Status",
   "options": "Draft\nSubmitted\nReversed\nCancelled",
   "read_only": 1
  }
 ],
 "index_web_pages_for_search": 1,
 "is_submittable": 1,
 "links": [],
 "modified": "2021-05-05 16:43:59.983171",
 "modified_by": "Administrator",
 "module": "Accounts",
 "name": "Adjustment Entry",
 "owner": "Administrator",
 "permissions": [
  {
   "create": 1,
   "delete": 1,
   "email": 1,
   "export": 1,
   "print": 1,
   "read": 1,
   "report": 1,
   "role": "System Manager",
   "share": 1,
   "write": 1
  }
 ],
 "sort_field": "modified",
 "sort_order": "DESC",
 "title_field": "title",
 "track_changes": 1
}