{
 "actions": [],
 "autoname": "naming_series:",
 "creation": "2017-07-18 17:50:43.967266",
 "doctype": "DocType",
 "editable_grid": 1,
 "engine": "InnoDB",
 "field_order": [
  "naming_series",
  "customer",
  "contact_person",
  "contact_email",
  "subscription_template",
  "sales_order_item",
  "cb_1",
  "company",
  "currency",
  "status",
  "subscription_period",
  "start",
  "trial_period_start",
  "trial_period_end",
  "cancellation_date",
  "prorate_last_invoice",
  "column_break_11",
  "current_invoice_start",
  "current_invoice_end",
  "modify_current_invoicing_end_date",
  "settings_section",
  "create_sales_order",
  "skip_delivery_note",
  "generate_invoice_at_period_start",
  "submit_invoice",
  "generate_payment_request",
  "payment_gateways_template",
  "email_template",
  "print_format",
  "column_break_18",
  "billing_interval",
  "billing_interval_count",
  "days_until_due",
  "sb_4",
  "subscription_plan",
  "plans",
  "sb_1",
  "tax_template",
  "column_break_21",
  "shipping_rule",
  "sb_2",
  "apply_additional_discount",
  "cb_2",
  "additional_discount_percentage",
  "additional_discount_amount",
  "total_section",
  "total",
  "column_break_25",
  "grand_total",
  "outstanding_amount",
  "terms_section",
  "terms_and_conditions",
  "accounting_dimensions_section",
  "dimension_col_break",
  "payment_gateways_section",
  "payment_gateway",
  "column_break_38",
  "payment_gateway_reference"
 ],
 "fields": [
  {
   "fieldname": "customer",
   "fieldtype": "Link",
   "in_list_view": 1,
   "in_standard_filter": 1,
   "label": "Customer",
   "options": "Customer",
   "reqd": 1
  },
  {
   "allow_on_submit": 1,
   "fieldname": "cb_1",
   "fieldtype": "Column Break"
  },
  {
   "fieldname": "status",
   "fieldtype": "Select",
   "hidden": 1,
   "in_standard_filter": 1,
   "label": "Status",
   "options": "\nTrial\nActive\nCancelled\nUnpaid\nPaid\nBillable\nBilling failed\nPayable\nDraft invoices\nCancelled and billable\nTo order"
  },
  {
   "fieldname": "subscription_period",
   "fieldtype": "Section Break",
   "label": "Subscription Period"
  },
  {
   "fieldname": "start",
   "fieldtype": "Date",
   "label": "Subscription Start Date",
   "reqd": 1,
   "set_only_once": 1
  },
  {
   "allow_on_submit": 1,
   "fieldname": "trial_period_start",
   "fieldtype": "Date",
   "label": "Trial Period Start Date",
   "set_only_once": 1
  },
  {
   "depends_on": "eval:doc.trial_period_start",
   "fieldname": "trial_period_end",
   "fieldtype": "Date",
   "label": "Trial Period End Date",
   "mandatory_depends_on": "eval:doc.trial_period_start"
  },
  {
   "fieldname": "column_break_11",
   "fieldtype": "Column Break"
  },
  {
   "fieldname": "current_invoice_start",
   "fieldtype": "Date",
   "label": "Current Invoicing Period Start Date",
   "no_copy": 1,
   "read_only": 1
  },
  {
   "fieldname": "current_invoice_end",
   "fieldtype": "Date",
   "in_list_view": 1,
   "label": "Current Invoicing Period End Date",
   "no_copy": 1,
   "read_only": 1
  },
  {
   "default": "0",
   "description": "Number of days that the subscriber has to pay invoices generated by this subscription",
   "fieldname": "days_until_due",
   "fieldtype": "Int",
   "label": "Days Until Due"
  },
  {
   "default": "0",
   "fieldname": "generate_invoice_at_period_start",
   "fieldtype": "Check",
   "label": "Generate the invoice at beginning of period"
  },
  {
   "default": "0",
   "fieldname": "submit_invoice",
   "fieldtype": "Check",
   "label": "Submit invoice automatically"
  },
  {
   "allow_on_submit": 1,
   "fieldname": "sb_4",
   "fieldtype": "Section Break",
   "label": "Plans"
  },
  {
   "allow_on_submit": 1,
   "fieldname": "plans",
   "fieldtype": "Table",
   "label": "Plans",
   "options": "Subscription Plan Detail",
   "reqd": 1
  },
  {
   "fieldname": "sb_1",
   "fieldtype": "Section Break",
   "label": "Taxes"
  },
  {
   "fieldname": "tax_template",
   "fieldtype": "Link",
   "label": "Sales Taxes and Charges Template",
   "options": "Sales Taxes and Charges Template"
  },
  {
   "fieldname": "column_break_21",
   "fieldtype": "Column Break"
  },
  {
   "fieldname": "shipping_rule",
   "fieldtype": "Link",
   "label": "Shipping Rule",
   "options": "Shipping Rule"
  },
  {
   "fieldname": "sb_2",
   "fieldtype": "Section Break",
   "label": "Discounts"
  },
  {
   "fieldname": "apply_additional_discount",
   "fieldtype": "Select",
   "label": "Apply Additional Discount On",
   "options": "\nGrand Total\nNet Total"
  },
  {
   "fieldname": "cb_2",
   "fieldtype": "Column Break"
  },
  {
   "fieldname": "additional_discount_percentage",
   "fieldtype": "Percent",
   "label": "Additional DIscount Percentage"
  },
  {
   "collapsible": 1,
   "fieldname": "additional_discount_amount",
   "fieldtype": "Currency",
   "label": "Additional DIscount Amount"
  },
  {
   "default": "ACC-SUB-.YYYY.-.#####",
   "fieldname": "naming_series",
   "fieldtype": "Select",
   "hidden": 1,
   "label": "Naming Series",
   "options": "ACC-SUB-.YYYY.-.#####"
  },
  {
   "fieldname": "terms_section",
   "fieldtype": "Section Break",
   "label": "Terms and conditions"
  },
  {
   "fieldname": "terms_and_conditions",
   "fieldtype": "Link",
   "label": "Terms and conditions",
   "options": "Terms and Conditions"
  },
  {
   "collapsible": 1,
   "fieldname": "accounting_dimensions_section",
   "fieldtype": "Section Break",
   "label": "Accounting Dimensions"
  },
  {
   "fieldname": "dimension_col_break",
   "fieldtype": "Column Break"
  },
  {
   "fieldname": "settings_section",
   "fieldtype": "Section Break",
   "label": "Settings"
  },
  {
   "default": "0",
   "fieldname": "create_sales_order",
   "fieldtype": "Check",
   "label": "Generate a sales order at beginning Of period"
  },
  {
   "fieldname": "column_break_18",
   "fieldtype": "Column Break"
  },
  {
   "fieldname": "cancellation_date",
   "fieldtype": "Date",
   "label": "Subscription End Date",
   "no_copy": 1,
   "read_only": 1
  },
  {
   "collapsible": 1,
   "fieldname": "payment_gateways_section",
   "fieldtype": "Section Break",
   "label": "Payment Gateways"
  },
  {
   "fieldname": "payment_gateway_reference",
   "fieldtype": "Data",
   "label": "Payment Gateway Reference",
   "no_copy": 1
  },
  {
   "fieldname": "column_break_38",
   "fieldtype": "Column Break"
  },
  {
   "fieldname": "total",
   "fieldtype": "Currency",
   "label": "Plans total",
   "read_only": 1
  },
  {
   "fieldname": "payment_gateway",
   "fieldtype": "Link",
   "label": "Payment Gateway",
   "no_copy": 1,
   "options": "Payment Gateway"
  },
  {
   "fieldname": "company",
   "fieldtype": "Link",
   "in_standard_filter": 1,
   "label": "Company",
   "options": "Company",
   "print_hide": 1,
   "remember_last_selected_value": 1,
   "reqd": 1,
   "search_index": 1
  },
  {
   "fieldname": "column_break_25",
   "fieldtype": "Column Break"
  },
  {
   "fieldname": "grand_total",
   "fieldtype": "Currency",
   "in_list_view": 1,
   "label": "Simulated grand total",
   "read_only": 1
  },
  {
   "fieldname": "total_section",
   "fieldtype": "Section Break",
   "label": "Total"
  },
  {
   "fieldname": "currency",
   "fieldtype": "Link",
   "label": "Currency",
   "options": "Currency",
   "reqd": 1
  },
  {
   "default": "Month",
   "fieldname": "billing_interval",
   "fieldtype": "Select",
   "label": "Billing Interval",
   "options": "Day\nWeek\nMonth\nYear"
  },
  {
   "default": "1",
   "fieldname": "billing_interval_count",
   "fieldtype": "Int",
   "label": "Billing Interval Count"
  },
  {
   "fieldname": "subscription_plan",
   "fieldtype": "Link",
   "label": "Subscription Plan",
   "options": "Subscription Plan"
  },
  {
   "fieldname": "outstanding_amount",
   "fieldtype": "Currency",
   "label": "Outstanding Amount",
   "read_only": 1
  },
  {
   "fieldname": "subscription_template",
   "fieldtype": "Link",
   "label": "From Template",
   "options": "Subscription Template",
   "read_only": 1
  },
  {
   "default": "0",
   "fieldname": "generate_payment_request",
   "fieldtype": "Check",
   "label": "Generate a payment request automatically"
  },
  {
   "default": "0",
   "depends_on": "eval:doc.prorate_invoice",
   "fieldname": "prorate_last_invoice",
   "fieldtype": "Check",
   "label": "Prorate last invoice",
   "no_copy": 1,
   "read_only": 1
  },
  {
   "depends_on": "eval:doc.current_invoice_end",
   "fieldname": "modify_current_invoicing_end_date",
   "fieldtype": "Button",
   "label": "Modify Current Invoicing End Date"
  },
  {
   "depends_on": "eval:doc.sales_order_item",
   "fieldname": "sales_order_item",
   "fieldtype": "Link",
   "hidden": 1,
   "label": "From Sales Order Item",
   "options": "Sales Order Item"
  },
  {
   "default": "0",
   "depends_on": "eval:doc.create_sales_order",
   "fieldname": "skip_delivery_note",
   "fieldtype": "Check",
   "label": "Skip delivery note"
  },
  {
   "depends_on": "eval:doc.generate_payment_request&&!doc.subscription_template",
   "fieldname": "payment_gateways_template",
   "fieldtype": "Link",
   "label": "Payment Gateways Template",
   "options": "Portal Payment Gateways Template"
  },
  {
   "depends_on": "eval:doc.generate_payment_request",
   "fetch_from": "payment_gateways_template.email_template",
   "fetch_if_empty": 1,
   "fieldname": "email_template",
   "fieldtype": "Link",
   "label": "Email Template",
   "options": "Email Template"
  },
  {
   "fetch_from": "contact_person.email_id",
   "fieldname": "contact_email",
   "fieldtype": "Data",
   "label": "Contact Email",
   "read_only": 1
  },
  {
   "fieldname": "contact_person",
   "fieldtype": "Link",
   "label": "Billing Contact",
   "options": "Contact"
  },
  {
   "depends_on": "eval:doc.generate_payment_request",
   "fieldname": "print_format",
   "fieldtype": "Link",
   "label": "Invoice Print Format",
   "options": "Print Format"
  }
 ],
 "index_web_pages_for_search": 1,
 "links": [],
 "modified": "2022-01-24 19:24:15.253023",
 "modified_by": "Administrator",
 "module": "Accounts",
 "name": "Subscription",
 "owner": "Administrator",
 "permissions": [
  {
   "create": 1,
   "delete": 1,
   "email": 1,
   "export": 1,
   "print": 1,
   "read": 1,
   "report": 1,
   "role": "System Manager",
   "share": 1,
   "write": 1
  },
  {
   "create": 1,
   "delete": 1,
   "email": 1,
   "export": 1,
   "print": 1,
   "read": 1,
   "report": 1,
   "role": "Accounts User",
   "share": 1,
   "write": 1
  },
  {
   "create": 1,
   "delete": 1,
   "email": 1,
   "export": 1,
   "print": 1,
   "read": 1,
   "report": 1,
   "role": "Accounts Manager",
   "share": 1,
   "write": 1
  }
 ],
 "route": "app/Form/DocType/Subscription",
 "sort_field": "modified",
 "sort_order": "DESC",
 "title_field": "customer",
 "track_changes": 1
}