{
 "add_total_row": 1,
 "columns": [],
 "creation": "2018-08-21 11:32:30.874923",
 "disable_prepared_report": 0,
 "disabled": 0,
 "docstatus": 0,
 "doctype": "Report",
 "filters": [],
 "idx": 0,
 "is_standard": "Yes",
 "modified": "2021-09-20 12:05:50.387572",
 "modified_by": "Administrator",
 "module": "Accounts",
 "name": "TDS Payable Monthly",
 "owner": "Administrator",
 "prepared_report": 0,
 "ref_doctype": "Purchase Invoice",
 "report_name": "TDS Payable Monthly",
 "report_type": "Script Report",
 "roles": [
  {
   "role": "Purchase User"
  },
  {
   "role": "Accounts Manager"
  },
  {
   "role": "Accounts User"
  },
  {
   "role": "Auditor"
  }
 ]
}
