{
 "actions": [],
 "allow_rename": 1,
 "autoname": "naming_series:",
 "creation": "2021-10-19 21:26:21.293409",
 "doctype": "DocType",
 "editable_grid": 1,
 "engine": "InnoDB",
 "field_order": [
  "naming_series",
  "employee",
  "employee_name",
  "column_break_3",
  "contract_type",
  "designation",
  "employment_period_section",
  "date_of_joining",
  "column_break_8",
  "relieving_date",
  "working_time_section",
  "weekly_working_hours",
  "daily_working_tome_section",
  "monday",
  "tuesday",
  "wednesday",
  "thursday",
  "column_break_16",
  "friday",
  "saturday",
  "sunday"
 ],
 "fields": [
  {
   "fieldname": "naming_series",
   "fieldtype": "Select",
   "label": "Series",
   "options": "HR-EMP-CONT-",
   "reqd": 1
  },
  {
   "fieldname": "employee",
   "fieldtype": "Link",
   "in_list_view": 1,
   "in_standard_filter": 1,
   "label": "Employee",
   "options": "Employee",
   "reqd": 1
  },
  {
   "fieldname": "contract_type",
   "fieldtype": "Link",
   "in_list_view": 1,
   "label": "Contract Type",
   "options": "Employment Contract Type",
   "reqd": 1
  },
  {
   "fieldname": "column_break_3",
   "fieldtype": "Column Break"
  },
  {
   "fieldname": "designation",
   "fieldtype": "Link",
   "in_list_view": 1,
   "label": "Designation",
   "options": "Designation",
   "reqd": 1
  },
  {
   "fieldname": "employment_period_section",
   "fieldtype": "Section Break",
   "label": "Employment Period"
  },
  {
   "fieldname": "column_break_8",
   "fieldtype": "Column Break"
  },
  {
   "fieldname": "working_time_section",
   "fieldtype": "Section Break",
   "hide_border": 1,
   "label": "Working Time"
  },
  {
   "fieldname": "weekly_working_hours",
   "fieldtype": "Float",
   "label": "Weekly working hours"
  },
  {
   "fieldname": "tuesday",
   "fieldtype": "Float",
   "label": "Tuesday"
  },
  {
   "fieldname": "wednesday",
   "fieldtype": "Float",
   "label": "Wednesday"
  },
  {
   "fieldname": "thursday",
   "fieldtype": "Float",
   "label": "Thursday"
  },
  {
   "fieldname": "column_break_16",
   "fieldtype": "Column Break"
  },
  {
   "fieldname": "friday",
   "fieldtype": "Float",
   "label": "Friday"
  },
  {
   "fieldname": "saturday",
   "fieldtype": "Float",
   "label": "Saturday"
  },
  {
   "fieldname": "sunday",
   "fieldtype": "Float",
   "label": "Sunday"
  },
  {
   "fieldname": "daily_working_tome_section",
   "fieldtype": "Section Break"
  },
  {
   "fieldname": "monday",
   "fieldtype": "Float",
   "label": "Monday"
  },
  {
   "fieldname": "date_of_joining",
   "fieldtype": "Date",
   "in_list_view": 1,
   "label": "Start Date",
   "reqd": 1
  },
  {
   "fieldname": "relieving_date",
   "fieldtype": "Date",
   "label": "End Date"
  },
  {
   "fetch_from": "employee.employee_name",
   "fieldname": "employee_name",
   "fieldtype": "Data",
   "in_list_view": 1,
   "label": "Employee Name",
   "read_only": 1
  }
 ],
 "index_web_pages_for_search": 1,
 "links": [],
 "modified": "2021-11-10 16:05:26.157935",
 "modified_by": "Administrator",
 "module": "HR",
 "name": "Employment Contract",
 "owner": "Administrator",
 "permissions": [
  {
   "create": 1,
   "delete": 1,
   "email": 1,
   "export": 1,
   "print": 1,
   "read": 1,
   "report": 1,
   "role": "System Manager",
   "share": 1,
   "write": 1
  }
 ],
 "sort_field": "modified",
 "sort_order": "DESC",
 "title_field": "designation",
 "track_changes": 1
}