{
 "allow_roles": [
  {
   "role": "Manufacturing User"
  },
  {
   "role": "Manufacturing Manager"
  },
  {
   "role": "Item Manager"
  },
  {
   "role": "Stock User"
  }
 ],
 "creation": "2020-05-05 16:37:08.238935",
 "docstatus": 0,
 "doctype": "Module Onboarding",
 "documentation_url": "https://doc.dokos.io/dokos/manufacturing/",
 "idx": 0,
 "is_complete": 0,
 "modified": "2021-08-13 16:04:34.333812",
 "modified_by": "Administrator",
 "module": "Manufacturing",
 "name": "Manufacturing",
 "owner": "Administrator",
 "steps": [
  {
    "step": "Explore Manufacturing Settings"
  },
  {
   "step": "Workstation"
  },
  {
   "step": "Operation"
  },
  {
    "step": "Routing"
  },
  {
    "step": "Create Product"
  },
  {
   "step": "Create BOM"
  },
  {
    "step": "Production Planning"
  },
  {
    "step": "Work Order"
  }
 ],
 "subtitle": "Products, raw materials, BOM, work order and more.",
 "success_message": "Manufacturing module is set up !",
 "title": "Setup the manufacturing module"
}
